03_tidyverse_package
…
1. Read data

1-1. Read CSV file

readr::read_csv()

 1000     .

,    column type  .

patients <- readr::read_csv(here('data/raw/tutorial_patients.csv'))
patients

## # A tibble: 50 x 5
##    subject_id gender anchor_age anchor_year dod      
##         <dbl> <chr>       <dbl>       <dbl> <chr>    
##  1   15256812 M              45        2133 <NA>     
##  2   17334909 F              64        2133 <NA>     
##  3   15701559 M              89        2131 2131.7.30
##  4   16051778 F              79        2159 <NA>     
##  5   18137539 M              52        2142 <NA>     
##  6   12294223 M              56        2145 <NA>     
##  7   18316605 F              53        2165 <NA>     
##  8   14133706 F              89        2149 <NA>     
##  9   16113779 F              57        2154 2154.7.11
## 10   15386471 F              29        2117 <NA>     
## # ... with 40 more rows

patients <- readr::read_csv(here('data/raw/tutorial_patients.csv'),
                            col_types = cols(dod = col_date(format = "%Y.%m.%d")))
patients

## # A tibble: 50 x 5
##    subject_id gender anchor_age anchor_year dod       
##         <dbl> <chr>       <dbl>       <dbl> <date>    
##  1   15256812 M              45        2133 NA        
##  2   17334909 F              64        2133 NA        
##  3   15701559 M              89        2131 2131-07-30
##  4   16051778 F              79        2159 NA        
##  5   18137539 M              52        2142 NA        
##  6   12294223 M              56        2145 NA        
##  7   18316605 F              53        2165 NA        
##  8   14133706 F              89        2149 NA        
##  9   16113779 F              57        2154 2154-07-11
## 10   15386471 F              29        2117 NA        
## # ... with 40 more rows
…
     Error  

: UTF-8

: CP949 or EUC-KR

readr::read_csv(file=here('data/raw/tutorial_patients_CP949.csv'))

readr::read_csv(file=here('data/raw/tutorial_patients_CP949.csv'), locale = readr::locale(encoding = "EUC-KR"))

## # A tibble: 50 x 5
##          
##       <dbl> <chr>    <dbl>    <dbl> <chr>    
##  1 15256812 M           45     2133 <NA>     
##  2 17334909 F           64     2133 <NA>     
##  3 15701559 M           89     2131 2131.7.30
##  4 16051778 F           79     2159 <NA>     
##  5 18137539 M           52     2142 <NA>     
##  6 12294223 M           56     2145 <NA>     
##  7 18316605 F           53     2165 <NA>     
##  8 14133706 F           89     2149 <NA>     
##  9 16113779 F           57     2154 2154.7.11
## 10 15386471 F           29     2117 <NA>     
## # ... with 40 more rows

1-2. Read Excel File

readxl::excel_sheets():    spreadsheet  

readxl::read_excel():   

library(readxl)
readxl::excel_sheets(here('data/raw/tutorial_patients.xlsx'))

## [1] "tutorial_patients"

readxl::read_excel(here('data/raw/tutorial_patients.xlsx'))

## # A tibble: 50 x 5
##    subject_id gender anchor_age anchor_year dod                
##         <dbl> <chr>       <dbl>       <dbl> <dttm>             
##  1   15256812 M              45        2133 NA                 
##  2   17334909 F              64        2133 NA                 
##  3   15701559 M              89        2131 2131-07-30 00:00:00
##  4   16051778 F              79        2159 NA                 
##  5   18137539 M              52        2142 NA                 
##  6   12294223 M              56        2145 NA                 
##  7   18316605 F              53        2165 NA                 
##  8   14133706 F              89        2149 NA                 
##  9   16113779 F              57        2154 2154-07-11 00:00:00
## 10   15386471 F              29        2117 NA                 
## # ... with 40 more rows
…
2. Data Wrangling - dplyr, tidyr packages

) package::command

patients

## # A tibble: 50 x 5
##    subject_id gender anchor_age anchor_year dod       
##         <dbl> <chr>       <dbl>       <dbl> <date>    
##  1   15256812 M              45        2133 NA        
##  2   17334909 F              64        2133 NA        
##  3   15701559 M              89        2131 2131-07-30
##  4   16051778 F              79        2159 NA        
##  5   18137539 M              52        2142 NA        
##  6   12294223 M              56        2145 NA        
##  7   18316605 F              53        2165 NA        
##  8   14133706 F              89        2149 NA        
##  9   16113779 F              57        2154 2154-07-11
## 10   15386471 F              29        2117 NA        
## # ... with 40 more rows

2-1. dplyr::select

 column  column   

select(patients, subject_id, gender, anchor_age)

## # A tibble: 50 x 3
##    subject_id gender anchor_age
##         <dbl> <chr>       <dbl>
##  1   15256812 M              45
##  2   17334909 F              64
##  3   15701559 M              89
##  4   16051778 F              79
##  5   18137539 M              52
##  6   12294223 M              56
##  7   18316605 F              53
##  8   14133706 F              89
##  9   16113779 F              57
## 10   15386471 F              29
## # ... with 40 more rows

select(patients, =subject_id, =gender, =anchor_age)

## # A tibble: 50 x 3
##        
##       <dbl> <chr> <dbl>
##  1 15256812 M        45
##  2 17334909 F        64
##  3 15701559 M        89
##  4 16051778 F        79
##  5 18137539 M        52
##  6 12294223 M        56
##  7 18316605 F        53
##  8 14133706 F        89
##  9 16113779 F        57
## 10 15386471 F        29
## # ... with 40 more rows
…
filter(patients, (gender == 'M')| (anchor_age > 65))

## # A tibble: 34 x 5
##    subject_id gender anchor_age anchor_year dod       
##         <dbl> <chr>       <dbl>       <dbl> <date>    
##  1   15256812 M              45        2133 NA        
##  2   15701559 M              89        2131 2131-07-30
##  3   16051778 F              79        2159 NA        
##  4   18137539 M              52        2142 NA        
##  5   12294223 M              56        2145 NA        
##  6   14133706 F              89        2149 NA        
##  7   10575110 F              87        2160 NA        
##  8   19004451 M              76        2132 NA        
##  9   14851010 M              62        2119 2119-08-04
## 10   16658317 F              76        2115 NA        
## # ... with 24 more rows
…
2-4. dplyr::mutate()

 column   column  

ifelse(,   ,   )

patients %>% mutate(gender = ifelse(gender == 'M', 'Male', 'Female'))

## # A tibble: 50 x 5
##    subject_id gender anchor_age anchor_year dod       
##         <dbl> <chr>       <dbl>       <dbl> <date>    
##  1   15256812 Male           45        2133 NA        
##  2   17334909 Female         64        2133 NA        
##  3   15701559 Male           89        2131 2131-07-30
##  4   16051778 Female         79        2159 NA        
##  5   18137539 Male           52        2142 NA        
##  6   12294223 Male           56        2145 NA        
##  7   18316605 Female         53        2165 NA        
##  8   14133706 Female         89        2149 NA        
##  9   16113779 Female         57        2154 2154-07-11
## 10   15386471 Female         29        2117 NA        
## # ... with 40 more rows

patients %>% mutate(death = ifelse(!is.na(dod), 'Death', 'Alive'))

## # A tibble: 50 x 6
##    subject_id gender anchor_age anchor_year dod        death
##         <dbl> <chr>       <dbl>       <dbl> <date>     <chr>
##  1   15256812 M              45        2133 NA         Alive
##  2   17334909 F              64        2133 NA         Alive
##  3   15701559 M              89        2131 2131-07-30 Death
##  4   16051778 F              79        2159 NA         Alive
##  5   18137539 M              52        2142 NA         Alive
##  6   12294223 M              56        2145 NA         Alive
##  7   18316605 F              53        2165 NA         Alive
##  8   14133706 F              89        2149 NA         Alive
##  9   16113779 F              57        2154 2154-07-11 Death
## 10   15386471 F              29        2117 NA         Alive
## # ... with 40 more rows
…
table table .

   bind_rows

   bind_cols

table1 <- readr::read_csv(here('data/raw/tutorial_patient1.csv'))
table2 <- readr::read_csv(here('data/raw/tutorial_patient2.csv'))
table3 <- readr::read_csv(here('data/raw/tutorial_patient3.csv'))
table4 <- readr::read_csv(here('data/raw/tutorial_patient4.csv'))
result <- bind_rows(table1, table2, table3, table4)
result

## # A tibble: 40 x 5
##    subject_id gender anchor_age anchor_year dod     
##         <dbl> <chr>       <dbl>       <dbl> <chr>   
##  1   19194449 M              57        2119 <NA>    
##  2   12207593 M              43        2193 2194.5.6
##  3   10656173 F              33        2176 <NA>    
##  4   10208468 M              87        2134 <NA>    
##  5   10682002 M              55        2132 <NA>    
##  6   18860233 F              54        2191 <NA>    
##  7   16828280 M              84        2141 <NA>    
##  8   12851972 F              91        2112 <NA>    
##  9   14923903 M              81        2138 <NA>    
## 10   10836215 M              62        2142 <NA>    
## # ... with 30 more rows
…
## Here we in TRD 2021

filenames = list.files(path=here('data/raw/'), pattern = "tutorial_patient[0-9]{1}.csv$")

result = tibble()
for (f in filenames){
  path = here(glue('data/raw/{f}'))
  table <- readr::read_csv(path)
  result = bind_rows(result, table)
}

result

## # A tibble: 40 x 5
##    subject_id gender anchor_age anchor_year dod     
##         <dbl> <chr>       <dbl>       <dbl> <chr>   
##  1   19194449 M              57        2119 <NA>    
##  2   12207593 M              43        2193 2194.5.6
##  3   10656173 F              33        2176 <NA>    
##  4   10208468 M              87        2134 <NA>    
##  5   10682002 M              55        2132 <NA>    
##  6   18860233 F              54        2191 <NA>    
##  7   16828280 M              84        2141 <NA>    
##  8   12851972 F              91        2112 <NA>    
##  9   14923903 M              81        2138 <NA>    
## 10   10836215 M              62        2142 <NA>    
## # ... with 30 more rows
…
icustays <- readr::read_csv(here('data/raw/tutorial_icustays.csv'))
patients <- readr::read_csv(here('data/raw/tutorial_patients.csv'))
icustays

## # A tibble: 50 x 7
##    subject_id  hadm_id  stay_id first_careunit          intime   outtime     los
##         <dbl>    <dbl>    <dbl> <chr>                   <chr>    <chr>     <dbl>
##  1   15256812 27228569 30957600 Medical Intensive Care~ 2133.6.~ 2133.6.2~  5.94
##  2   17334909 20212017 32339865 Medical Intensive Care~ 2133.11~ 2133.11.~  2.64
##  3   15701559 20996763 32652537 Medical/Surgical Inten~ 2131.7.~ 2131.7.2~ 13.0 
##  4   16051778 28146406 39623620 Medical Intensive Care~ 2161.5.~ 2161.5.2~  5.25
##  5   18137539 21957886 37481477 Medical Intensive Care~ 2142.9.~ 2142.9.2~ 10.8 
##  6   12294223 27700229 39327341 Coronary Care Unit (CC~ 2145.1.~ 2145.1.6~  2.72
##  7   18316605 28379893 36658714 Medical Intensive Care~ 2166.9.~ 2166.9.2~  2.73
##  8   14133706 28915263 33414119 Medical/Surgical Inten~ 2149.12~ 2149.12.~  1.30
##  9   16113779 25489328 39531653 Medical/Surgical Inten~ 2154.7.~ 2154.7.1~  1.04
## 10   15386471 28958740 35806450 Medical Intensive Care~ 2120.2.~ 2120.4.2~ 52.7 
## # ... with 40 more rows

patients

## # A tibble: 50 x 5
##    subject_id gender anchor_age anchor_year dod      
##         <dbl> <chr>       <dbl>       <dbl> <chr>    
##  1   15256812 M              45        2133 <NA>     
##  2   17334909 F              64        2133 <NA>     
##  3   15701559 M              89        2131 2131.7.30
##  4   16051778 F              79        2159 <NA>     
##  5   18137539 M              52        2142 <NA>     
##  6   12294223 M              56        2145 <NA>     
##  7   18316605 F              53        2165 <NA>     
##  8   14133706 F              89        2149 <NA>     
##  9   16113779 F              57        2154 2154.7.11
## 10   15386471 F              29        2117 <NA>     
## # ... with 40 more rows

icustays %>% left_join(patients, by = 'subject_id')

## # A tibble: 50 x 11
##    subject_id  hadm_id  stay_id first_careunit     intime  outtime    los gender
##         <dbl>    <dbl>    <dbl> <chr>              <chr>   <chr>    <dbl> <chr> 
##  1   15256812 27228569 30957600 Medical Intensive~ 2133.6~ 2133.6.~  5.94 M     
##  2   17334909 20212017 32339865 Medical Intensive~ 2133.1~ 2133.11~  2.64 F     
##  3   15701559 20996763 32652537 Medical/Surgical ~ 2131.7~ 2131.7.~ 13.0  M     
##  4   16051778 28146406 39623620 Medical Intensive~ 2161.5~ 2161.5.~  5.25 F     
##  5   18137539 21957886 37481477 Medical Intensive~ 2142.9~ 2142.9.~ 10.8  M     
##  6   12294223 27700229 39327341 Coronary Care Uni~ 2145.1~ 2145.1.~  2.72 M     
##  7   18316605 28379893 36658714 Medical Intensive~ 2166.9~ 2166.9.~  2.73 F     
##  8   14133706 28915263 33414119 Medical/Surgical ~ 2149.1~ 2149.12~  1.30 F     
##  9   16113779 25489328 39531653 Medical/Surgical ~ 2154.7~ 2154.7.~  1.04 F     
## 10   15386471 28958740 35806450 Medical Intensive~ 2120.2~ 2120.4.~ 52.7  F     
## # ... with 40 more rows, and 3 more variables: anchor_age <dbl>,
## #   anchor_year <dbl>, dod <chr>
…
labevents <- readr::read_csv(here('data/raw/tutorial_labevents.csv'))
labevents

## # A tibble: 7,647 x 5
##    subject_id  hadm_id charttime        label             value
##         <dbl>    <dbl> <chr>            <chr>             <dbl>
##  1   10394530 20598126 2191.7.3 7:02    White Blood Cells   6.8
##  2   10394530 20598126 2191.7.4 2:26    White Blood Cells   9.1
##  3   10575110 24932181 2160.11.29 4:55  White Blood Cells  18  
##  4   10575110 24932181 2160.11.30 4:32  White Blood Cells  14.7
##  5   10575110 24932181 2160.11.30 17:50 White Blood Cells   9.7
##  6   10575110 24932181 2160.12.1 4:30   White Blood Cells   8  
##  7   10575110 24932181 2160.12.2 4:44   White Blood Cells   6.5
##  8   10575110 24932181 2160.12.3 5:25   White Blood Cells   3.8
##  9   10575110 24932181 2160.12.4 5:21   White Blood Cells   5.9
## 10   10575110 24932181 2160.12.5 5:10   White Blood Cells   8.2
## # ... with 7,637 more rows

labs <- icustays %>% 
  left_join(labevents) %>% 
  group_by(subject_id, hadm_id, stay_id,label) %>% 
  filter(charttime == min(charttime)) %>% 
  select(ends_with('id'), label, value, charttime, intime, outtime)
labs

## # A tibble: 611 x 8
## # Groups:   subject_id, hadm_id, stay_id, label [611]
##    subject_id  hadm_id  stay_id label        value charttime  intime   outtime  
##         <dbl>    <dbl>    <dbl> <chr>        <dbl> <chr>      <chr>    <chr>    
##  1   15256812 27228569 30957600 White Bloo~  18.6  2133.6.16~ 2133.6.~ 2133.6.2~
##  2   15256812 27228569 30957600 Chloride    108    2133.6.16~ 2133.6.~ 2133.6.2~
##  3   15256812 27228569 30957600 Alanine Am~  49    2133.6.16~ 2133.6.~ 2133.6.2~
##  4   15256812 27228569 30957600 Creatinine    0.8  2133.6.16~ 2133.6.~ 2133.6.2~
##  5   15256812 27228569 30957600 Platelet C~ 259    2133.6.16~ 2133.6.~ 2133.6.2~
##  6   15256812 27228569 30957600 pH            7.27 2133.6.16~ 2133.6.~ 2133.6.2~
##  7   15256812 27228569 30957600 Potassium     4.7  2133.6.16~ 2133.6.~ 2133.6.2~
##  8   15256812 27228569 30957600 Hematocrit   37.4  2133.6.16~ 2133.6.~ 2133.6.2~
##  9   15256812 27228569 30957600 Hemoglobin   12.5  2133.6.16~ 2133.6.~ 2133.6.2~
## 10   15256812 27228569 30957600 Asparate A~ 263    2133.6.16~ 2133.6.~ 2133.6.2~
## # ... with 601 more rows
labs %>% 
  pivot_wider(id_cols = c('subject_id', 'hadm_id', 'stay_id'), names_from = label) %>% 
  select(ends_with('id'), 
        `White Blood Cells`, 
        `Red Blood Cells`, 
        `Platelet Count`, 
        `Alanine Aminotransferase (ALT)`,
        `Asparate Aminotransferase (AST)`,
        Creatinine,
        Sodium,
        Potassium,
        Chloride,
        Bicarbonate)

## # A tibble: 50 x 13
## # Groups:   subject_id, hadm_id, stay_id [50]
##    subject_id hadm_id stay_id `White Blood Ce~ `Red Blood Cell~ `Platelet Count`
##         <dbl>   <dbl>   <dbl>            <dbl>            <dbl>            <dbl>
##  1   15256812  2.72e7  3.10e7             18.6             4.23              259
##  2   17334909  2.02e7  3.23e7              5.1             6.73              146
##  3   15701559  2.10e7  3.27e7             13.7             3.91              193
##  4   16051778  2.81e7  3.96e7             18.6             3.47              377
##  5   18137539  2.20e7  3.75e7             11.2             2.65             1128
##  6   12294223  2.77e7  3.93e7              9.5             4.51              214
##  7   18316605  2.84e7  3.67e7             13.3             3.8               201
##  8   14133706  2.89e7  3.34e7             16.6             3.79              215
##  9   16113779  2.55e7  3.95e7              2.8             3.24              542
## 10   15386471  2.90e7  3.58e7              7.7             3.05              193
## # ... with 40 more rows, and 7 more variables:
## #   Alanine Aminotransferase (ALT) <dbl>,
## #   Asparate Aminotransferase (AST) <dbl>, Creatinine <dbl>, Sodium <dbl>,
## #   Potassium <dbl>, Chloride <dbl>, Bicarbonate <dbl>
…
result_table <- demographic_table %>% 
  right_join(vital_table, by = c('subject_id', 'hadm_id', 'stay_id')) %>% 
  right_join(lab_table, by = c('subject_id', 'hadm_id'))

result_table

## # A tibble: 50 x 30
##    subject_id  hadm_id stay_id.x first_careunit    intime  outtime    los gender
##         <dbl>    <dbl>     <dbl> <chr>             <chr>   <chr>    <dbl> <chr> 
##  1   15256812 27228569  30957600 Medical Intensiv~ 2133.6~ 2133.6.~  5.94 M     
##  2   17334909 20212017  32339865 Medical Intensiv~ 2133.1~ 2133.11~  2.64 F     
##  3   15701559 20996763  32652537 Medical/Surgical~ 2131.7~ 2131.7.~ 13.0  M     
##  4   16051778 28146406  39623620 Medical Intensiv~ 2161.5~ 2161.5.~  5.25 F     
##  5   18137539 21957886  37481477 Medical Intensiv~ 2142.9~ 2142.9.~ 10.8  M     
##  6   12294223 27700229  39327341 Coronary Care Un~ 2145.1~ 2145.1.~  2.72 M     
##  7   18316605 28379893  36658714 Medical Intensiv~ 2166.9~ 2166.9.~  2.73 F     
##  8   14133706 28915263  33414119 Medical/Surgical~ 2149.1~ 2149.12~  1.30 F     
##  9   16113779 25489328  39531653 Medical/Surgical~ 2154.7~ 2154.7.~  1.04 F     
## 10   15386471 28958740  35806450 Medical Intensiv~ 2120.2~ 2120.4.~ 52.7  F     
## # ... with 40 more rows, and 22 more variables: anchor_age <dbl>,
## #   anchor_year <dbl>, dod <chr>, death <dbl>,
## #   Non Invasive Blood Pressure systolic <dbl>,
## #   Non Invasive Blood Pressure diastolic <dbl>, Heart Rate <dbl>,
## #   Respiratory Rate <dbl>, Temperature Fahrenheit <dbl>,
## #   Temperature Celsius <dbl>, O2 saturation pulseoxymetry <dbl>,
## #   stay_id.y <dbl>, White Blood Cells <dbl>, Red Blood Cells <dbl>,
## #   Platelet Count <dbl>, Alanine Aminotransferase (ALT) <dbl>,
## #   Asparate Aminotransferase (AST) <dbl>, Creatinine <dbl>, Sodium <dbl>,
…
