04_ggplot_package
…
Histogram 2

histogram2_data_wider <- table %>% 
  select(`Non Invasive Blood Pressure systolic`, `Non Invasive Blood Pressure diastolic`) 

histogram2_data_longer <- histogram2_data_wider %>% 
  pivot_longer(cols = c(`Non Invasive Blood Pressure systolic`, `Non Invasive Blood Pressure diastolic`), names_to = 'label', values_to = 'value')

histogram2_data_wider

## # A tibble: 50 x 2
##    `Non Invasive Blood Pressure systolic` `Non Invasive Blood Pressure diastoli
##                                     <dbl>                                  <dbl>
##  1                                    104                                     79
##  2                                    150                                     87
##  3                                     99                                     58
##  4                                     99                                     68
##  5                                    152                                     89
##  6                                    137                                     76
##  7                                    179                                    105
##  8                                     89                                     54
##  9                                    102                                     50
## 10                                    166                                     78
## #  with 40 more rows

histogram2_data_longer

## # A tibble: 100 x 2
##    label                                 value
##    <chr>                                 <dbl>
##  1 Non Invasive Blood Pressure systolic    104
##  2 Non Invasive Blood Pressure diastolic    79
##  3 Non Invasive Blood Pressure systolic    150
##  4 Non Invasive Blood Pressure diastolic    87
##  5 Non Invasive Blood Pressure systolic     99
##  6 Non Invasive Blood Pressure diastolic    58
##  7 Non Invasive Blood Pressure systolic     99
##  8 Non Invasive Blood Pressure diastolic    68
##  9 Non Invasive Blood Pressure systolic    152
## 10 Non Invasive Blood Pressure diastolic    89
## #  with 90 more rows
…
