04_ggplot_package
…
## 
## -- Column specification --------------------------------------------------------
## cols(
##   .default = col_double(),
##   first_careunit = col_character(),
##   intime = col_character(),
##   outtime = col_character(),
##   gender = col_character(),
##   dod = col_character()
## )
## i<U+00A0>Use `spec()` for the full column specifications.

table

## # A tibble: 50 x 30
##    subject_id  hadm_id stay_id.x first_careunit    intime  outtime    los gender
##         <dbl>    <dbl>     <dbl> <chr>             <chr>   <chr>    <dbl> <chr> 
##  1   15256812 27228569  30957600 Medical Intensiv~ 2133.6~ 2133.6.~  5.94 M     
##  2   17334909 20212017  32339865 Medical Intensiv~ 2133.1~ 2133.11~  2.64 F     
##  3   15701559 20996763  32652537 Medical/Surgical~ 2131.7~ 2131.7.~ 13.0  M     
##  4   16051778 28146406  39623620 Medical Intensiv~ 2161.5~ 2161.5.~  5.25 F     
##  5   18137539 21957886  37481477 Medical Intensiv~ 2142.9~ 2142.9.~ 10.8  M     
##  6   12294223 27700229  39327341 Coronary Care Un~ 2145.1~ 2145.1.~  2.72 M     
##  7   18316605 28379893  36658714 Medical Intensiv~ 2166.9~ 2166.9.~  2.73 F     
##  8   14133706 28915263  33414119 Medical/Surgical~ 2149.1~ 2149.12~  1.30 F     
##  9   16113779 25489328  39531653 Medical/Surgical~ 2154.7~ 2154.7.~  1.04 F     
## 10   15386471 28958740  35806450 Medical Intensiv~ 2120.2~ 2120.4.~ 52.7  F     
## # ... with 40 more rows, and 22 more variables: anchor_age <dbl>,
## #   anchor_year <dbl>, dod <chr>, death <dbl>,
## #   Non Invasive Blood Pressure systolic <dbl>,
## #   Non Invasive Blood Pressure diastolic <dbl>, Heart Rate <dbl>,
## #   Respiratory Rate <dbl>, Temperature Fahrenheit <dbl>,
## #   Temperature Celsius <dbl>, O2 saturation pulseoxymetry <dbl>,
## #   stay_id.y <dbl>, White Blood Cells <dbl>, Red Blood Cells <dbl>,
## #   Platelet Count <dbl>, Alanine Aminotransferase (ALT) <dbl>,
## #   Asparate Aminotransferase (AST) <dbl>, Creatinine <dbl>, Sodium <dbl>,
…
Histogram 2

histogram2_data_wider <- table %>% 
  select(`Non Invasive Blood Pressure systolic`, `Non Invasive Blood Pressure diastolic`) 

histogram2_data_longer <- histogram2_data_wider %>% 
  pivot_longer(cols = c(`Non Invasive Blood Pressure systolic`, `Non Invasive Blood Pressure diastolic`), names_to = 'label', values_to = 'value')

histogram2_data_wider

## # A tibble: 50 x 2
##    `Non Invasive Blood Pressure systolic` `Non Invasive Blood Pressure diastoli~
##                                     <dbl>                                  <dbl>
##  1                                    104                                     79
##  2                                    150                                     87
##  3                                     99                                     58
##  4                                     99                                     68
##  5                                    152                                     89
##  6                                    137                                     76
##  7                                    179                                    105
##  8                                     89                                     54
##  9                                    102                                     50
## 10                                    166                                     78
## # ... with 40 more rows

histogram2_data_longer

## # A tibble: 100 x 2
##    label                                 value
##    <chr>                                 <dbl>
##  1 Non Invasive Blood Pressure systolic    104
##  2 Non Invasive Blood Pressure diastolic    79
##  3 Non Invasive Blood Pressure systolic    150
##  4 Non Invasive Blood Pressure diastolic    87
##  5 Non Invasive Blood Pressure systolic     99
##  6 Non Invasive Blood Pressure diastolic    58
##  7 Non Invasive Blood Pressure systolic     99
##  8 Non Invasive Blood Pressure diastolic    68
##  9 Non Invasive Blood Pressure systolic    152
## 10 Non Invasive Blood Pressure diastolic    89
## # ... with 90 more rows
…
